<svg xmlns="http://www.w3.org/2000/svg" width="30.688" height="29.768" viewBox="0 0 30.688 29.768">
  <path id="layers_1_" data-name="layers (1)" d="M25.3,12.62l5.392-3.081L15.344.825,0,9.539,5.392,12.62,0,15.683l5.392,3.081L0,21.826l15.344,8.767,15.344-8.767L25.3,18.764l5.392-3.081ZM15.344,2.109,28.431,9.542,15.344,17.02,2.257,9.542ZM6.52,13.264l8.824,5.042,8.824-5.042,4.263,2.421L15.344,23.163,2.257,15.685Zm21.912,8.564L15.344,29.306,2.257,21.829,6.52,19.408l8.824,5.042,8.824-5.042Z" transform="translate(0 -0.825)" fill="#c9a050"/>
</svg>
